<svg width="29" height="16" viewBox="0 0 29 16" fill="none" xmlns="http://www.w3.org/2000/svg">
<path d="M27.9688 14.7846C27.5828 15.1711 26.9557 15.1711 26.5698 14.7846L14.2688 2.44161L1.94363 14.7846C1.55771 15.1711 0.9306 15.1711 0.544685 14.7846C0.15877 14.3981 0.15877 13.7701 0.544685 13.3836L13.5452 0.364318C13.7381 0.171082 13.9793 0.0744629 14.2447 0.0744629C14.4859 0.0744629 14.7512 0.171082 14.9441 0.364318L27.9446 13.3836C28.3547 13.7701 28.3547 14.3981 27.9688 14.7846Z" fill="#00BBB3"/>
</svg>
